<svg xmlns="http://www.w3.org/2000/svg" width="24" height="24" viewBox="0 0 24 24">
  <path d="M17.920074,24 C17.4793492,23.9263831 17.0354074,23.8687699 16.5978996,23.7759486 C14.9659169,23.3745744 13.401915,22.7372492 11.9558129,21.8843148 C9.67975815,20.6258188 7.61708147,19.0185698 5.84357117,17.1216225 C3.68498476,14.7882874 1.88991589,12.2180979 0.757542688,9.22861229 C0.318774829,8.15306692 0.0664213577,7.0113027 0.0112058069,5.85183785 C-0.0742998645,4.70494551 0.332471665,3.57568743 1.13071113,2.74392507 C1.80627468,2.05576725 2.45931946,1.34200355 3.18635452,0.714659676 C4.30907681,-0.245560544 5.53152515,-0.245560544 6.61564381,0.759469953 C7.76088489,1.82851513 8.86752233,2.95197279 9.93233917,4.09463485 C10.7427644,4.96386678 10.7427644,6.30770983 9.93233917,7.17694175 C9.36615257,7.81708857 8.73884356,8.39962217 8.14048726,9.01096237 C8.08579879,9.06217412 8.02789334,9.10698439 7.92816729,9.19660495 C9.5261067,12.074507 11.9122877,14.441986 14.8092647,16.0237707 L16.237599,14.5866411 C16.5883998,14.1742609 17.0282694,13.8460236 17.5243868,13.6264209 C18.3209951,13.2816836 19.2476853,13.4456531 19.8759913,14.0425163 C21.0748486,15.17771 22.2436807,16.344911 23.3824879,17.5441194 C24.1818694,18.3965317 24.2082086,19.7109829 23.4436103,20.594419 C22.7230092,21.4394127 21.9252008,22.2395963 21.1177415,23.0141739 C20.5427763,23.5403235 19.8107672,23.8651429 19.0331454,23.9391861 C18.9776256,23.9522302 18.9228569,23.9682574 18.8690799,23.9871971 L17.920074,24 Z"/>
</svg>
